{
    "specials": [
        "Jewel Thief Nomad",
        "Nomad",
        "Nomad Virtual",
        "Warrior Nomad",
        "Scattered",
        false
    ],
    "requirements":[null,null,null,null,
        {"req": true,"clan": [
            {"tot_p":85000,"cap":200},
            {"tot_p":170000,"cap":350},
            {"tot_p":400000,"cap":1000,"gam_cap":10},
            {"tot_p":600000,"cap":2500,"gam_cap":25,"phy_dep":100},
            {"tot_p":850000,"cap":5000,"gam_cap":75,"phy_dep":250}
        ],"user": [
            {"tot_p":6500},
            {"tot_p":17500,"cap":30},
            {"tot_p":35000,"cap":75},
            {"tot_p":50000,"cap":150},
            {"tot_p":75000,"cap":300}
        ]},
        {"req":true,"clan":[
            {"phy_cap":250,"phy_dep":150,"tot_p":100000},
            {"phy_cap":500,"phy_dep":300,"tot_p":250000},
            {"phy_cap":800,"phy_dep":400,"tot_p":500000},
            {"phy_cap":1100,"phy_dep":700,"tot_p":999999},
            {"phy_cap":2000,"phy_dep":1000,"myth_cap":50,"tot_p":1500000}
        ],"user":[
            {"tot_p":6000},
            {"tot_p":15000,"phy_cap":20},
            {"tot_p":35000,"phy_cap":50,"phy_dep":25},
            {"tot_p":50000,"phy_cap":70,"phy_dep":50},
            {"tot_p":100000,"phy_cap":100,"phy_dep":80}
        ]},
        {"req":true,"clan":[
            {"c_days":7,"tot_p":100000},
            {"c_days":10,"d_days":7,"tot_p":225000},
            {"c_days":14,"d_days":14,"clan_dep":100,"tot_p":450000},
            {"c_days":21,"d_days":21,"clan_dep":175,"jewel_dep":100,"tot_p":700000},
            {"c_days":28,"d_days":28,"clan_dep":200,"jewel_dep":200,"tot_p":1000000}
        ],"user":[
            {"c_days":7,"tot_p":5000},
            {"c_days":10,"d_days":7,"tot_p":12000},
            {"c_days":14,"d_days":14,"tot_p":30000},
            {"c_days":21,"d_days":21,"tot_p":50000},
            {"c_days":28,"d_days":28,"tot_p":85000}
        ]},
        {"req":true,"clan":[
            {"tot_p":40000,"cap_xsoc":125,"dep_xsoc":30},
            {"tot_p":90000,"cap_xsoc":250,"dep_xsoc":75},
            {"tot_p":175000,"cap_xsoc":400,"dep_xsoc":150},
            {"tot_p":325000,"cap_xsoc":750,"dep_xsoc":250},
            {"tot_p":625000,"cap_xsoc":1500,"dep_xsoc":400}
        ],"user":[
            {"tot_p":2500},
            {"tot_p":7000},
            {"tot_p":15000},
            {"tot_p":25000},
            {"tot_p":42500}
        ],
        "rewards":[
            
        ]},
        {"req":true,"clan":[
            {"tot_p":100000,"mys_cap":100,"mothot_cap":0,"mys_dep":0,"phyjew_cap":0,"phyevo_cap":0,"prem_cap":0,"phyjew_dep":0,"phyevo_dep":0,"prem_dep":0,"mothot_dep":0},
            {"tot_p":200000,"mys_cap":100,"mothot_cap":200,"mys_dep":20,"phyjew_cap":0,"phyevo_cap":0,"prem_cap":0,"phyjew_dep":0,"phyevo_dep":0,"prem_dep":0,"mothot_dep":0},
            {"tot_p":450000,"mys_cap":100,"mothot_cap":200,"mys_dep":20,"phyjew_cap":200,"phyevo_cap":0,"prem_cap":0,"phyjew_dep":0,"phyevo_dep":0,"prem_dep":0,"mothot_dep":0},
            {"tot_p":700000,"mys_cap":100,"mothot_cap":200,"mys_dep":20,"phyjew_cap":200,"phyevo_cap":200,"prem_cap":50,"phyjew_dep":0,"phyevo_dep":0,"prem_dep":0,"mothot_dep":0},
            {"tot_p":1000000,"mys_cap":100,"mothot_cap":200,"mys_dep":50,"phyjew_cap":200,"phyevo_cap":200,"prem_cap":50,"phyjew_dep":200,"phyevo_dep":50,"prem_dep":10,"mothot_dep":150}
        ],"user":[
            {},
            {},
            {},
            {},
            {}
        ]},
        {"name":"Oct 18","clan":[
            {"tot_p": 100000, "myth_cap": 20, "tempvirt_cap": 10, "event_cap": 2, "rmyth_cap": 0, "zeeqrew_replace": 0, "virtevo_cap": 50, "surprise_cap": 0, "scatter_cap": 0, "scatter_dep": 0, "scattered_cap": 25, "prize_cap": 0, "clan_dep": 0},
            {"tot_p": 250000, "myth_cap": 20, "tempvirt_cap": 10, "event_cap": 5, "rmyth_cap": 0, "zeeqrew_replace": 10, "virtevo_cap": 50, "surprise_cap": 20, "scatter_cap": 0, "scatter_dep": 0, "scattered_cap": 25, "prize_cap": 25, "clan_dep": 50},
            {"tot_p": 450000, "myth_cap": 40, "tempvirt_cap": 10, "event_cap": 10, "rmyth_cap": 5, "zeeqrew_replace": 35, "virtevo_cap": 50, "surprise_cap": 20, "scatter_cap": 50, "scatter_dep": 0, "scattered_cap": 25, "prize_cap": 25, "clan_dep": 150},
            {"tot_p": 600000, "myth_cap": 50, "tempvirt_cap": 10, "event_cap": 10, "rmyth_cap": 5, "zeeqrew_replace": 60, "virtevo_cap": 50, "surprise_cap": 20, "scatter_cap": 50, "scatter_dep": 10, "scattered_cap": 25, "prize_cap": 25, "clan_dep": 150},
            {"tot_p": 800000, "myth_cap": 50, "tempvirt_cap": 110, "event_cap": 15, "rmyth_cap": 10, "zeeqrew_replace": 100, "virtevo_cap": 100, "surprise_cap": 20, "scatter_cap": 50, "scatter_dep": 50, "scattered_cap": 125, "prize_cap": 125, "clan_dep": 250}
        ],"user":[
            {"tot_p": 5000, "clan_dep": 0,"myth_cap": 0},
            {"tot_p": 7500, "clan_dep": 5,"myth_cap": 0},
            {"tot_p": 12500, "clan_dep": 15,"myth_cap": 0},
            {"tot_p": 30000, "clan_dep": 15,"myth_cap": 0},
            {"tot_p": 75000, "clan_dep": 15,"myth_cap": 3}
        ]},
        {"name":"Nov 18","clan":[
            {
                "nov18_greenie_dep": 100,
                "nov18_diff_places_cap": 10,
                "nov18_zodiac_cap": 0,
                "nov18_nomad_cap": 0,
                "nov18_retmyth_cap": 0,
                "nov18_clan_dep": 0,
                "nov18_jewel_dep": 0,
                "nov18_pouch_cap": 0,
                "nov18_virtual_dep": 0,
                "tot_p": 75000
            },{
                "nov18_greenie_dep": 100,
                "nov18_diff_places_cap": 20,
                "nov18_zodiac_cap": 100,
                "nov18_nomad_cap": 0,
                "nov18_retmyth_cap": 0,
                "nov18_clan_dep": 0,
                "nov18_jewel_dep": 0,
                "nov18_pouch_cap": 0,
                "nov18_virtual_dep": 0,
                "tot_p": 125000
            },{
                "nov18_greenie_dep": 200,
                "nov18_diff_places_cap": 25,
                "nov18_zodiac_cap": 50,
                "nov18_nomad_cap": 20,
                "nov18_retmyth_cap": 0,
                "nov18_clan_dep": 0,
                "nov18_jewel_dep": 0,
                "nov18_pouch_cap": 0,
                "nov18_virtual_dep": 0,
                "tot_p": 225000
            },{
                "nov18_greenie_dep": 100,
                "nov18_diff_places_cap": 40,
                "nov18_zodiac_cap": 50,
                "nov18_nomad_cap": 10,
                "nov18_retmyth_cap": 20,
                "nov18_clan_dep": 50,
                "nov18_jewel_dep": 50,
                "nov18_pouch_cap": 0,
                "nov18_virtual_dep": 0,
                "tot_p": 475000
            },{
                "nov18_greenie_dep": 50,
                "nov18_diff_places_cap": 40,
                "nov18_zodiac_cap": 50,
                "nov18_nomad_cap": 15,
                "nov18_retmyth_cap": 25,
                "nov18_clan_dep": 50,
                "nov18_jewel_dep": 50,
                "nov18_pouch_cap": 50,
                "nov18_virtual_dep": 50,
                "tot_p": 700000
            }
        ],"user":[
            {
                "nov18_jewel_cap": 25,
                "nov18_places_cap": 1,
                "nov18_cap_streak": 5,
                "nov18_clan_cap": 0,
                "nov18_virtual_cap": 0,
                "nov18_leprechaun_cap": 0,
                "nov18_yeti_cap": 0,
                "nov18_faun_cap": 0,
                "nov18_mermaid_cap": 0,
                "nov18_hydra_cap": 0,
                "tot_p":5000
            },{
                "nov18_jewel_cap": 10,
                "nov18_places_cap": 2,
                "nov18_cap_streak": 8,
                "nov18_clan_cap": 10,
                "nov18_virtual_cap": 10,
                "nov18_leprechaun_cap": 0,
                "nov18_yeti_cap": 0,
                "nov18_faun_cap": 0,
                "nov18_mermaid_cap": 0,
                "nov18_hydra_cap": 0,
                "tot_p":7500
            },{
                "nov18_jewel_cap": 0,
                "nov18_places_cap": 5,
                "nov18_cap_streak": 10,
                "nov18_clan_cap": 20,
                "nov18_virtual_cap": 25,
                "nov18_leprechaun_cap": 1,
                "nov18_yeti_cap": 0,
                "nov18_faun_cap": 0,
                "nov18_mermaid_cap": 0,
                "nov18_hydra_cap": 0,
                "tot_p":15000
            },{
                "nov18_jewel_cap": 0,
                "nov18_places_cap": 10,
                "nov18_cap_streak": 17,
                "nov18_clan_cap": 20,
                "nov18_virtual_cap": 25,
                "nov18_leprechaun_cap": 1,
                "nov18_yeti_cap": 1,
                "nov18_faun_cap": 1,
                "nov18_mermaid_cap": 0,
                "nov18_hydra_cap": 0,
                "tot_p":30000
            },{
                "nov18_jewel_cap": 0,
                "nov18_places_cap": 10,
                "nov18_cap_streak": 21,
                "nov18_clan_cap": 20,
                "nov18_virtual_cap": 25,
                "nov18_leprechaun_cap": 1,
                "nov18_yeti_cap": 1,
                "nov18_faun_cap": 1,
                "nov18_mermaid_cap": 1,
                "nov18_hydra_cap": 1,
                "tot_p":55000
            }
        ],"rewards":[
            {
                "mace":1,
                "crossbow":1,
                "virtual":1,
                "virtual_rainbow":1,
                "rockpaperscissors":1
            },
            {
                "longsword":1,
                "crossbow":2,
                "virtual":2,
                "virtual_rainbow":2,
                "prize_wheel":1,
                "surprise":1,
                "diamond":1
            },
            {
                "mace":2,
                "longsword":1,
                "crossbow":2,
                "virtual":3,
                "virtual_rainbow":3,
                "virtualsapphire":2
            },
            {
                "battleaxe":1,
                "crossbow":1,
                "catapult":1,
                "prize_wheel":1,
                "virtual":3,
                "virtual_rainbow":3,
                "ruby":1
            },
            {
                "battleaxe":2,
                "thehammer":1,
                "catapult":2,
                "blast_capture":1,
                "virtual":4,
                "virtual_rainbow":4,
                "evolution":1
            }
        ]}
    ],
    "phyVirt":{
        "flatrob": 0,
        "mysteryvirtual": 0,
        "mvmwhite": 0,
        "flatmatt": 0,
        "virtual": 0,
        "mvmblue": 0,
        "temporaryvirtual": 0,
        "mvmdarkgreen": 0,
        "crossbow": 0,
        "virtualemerald": 0,
        "virtualshamrock": 0,
        "icebucket": 0,
        "mvmred": 0,
        "mvmrainbow": 0,
        "mvmblack": 0,
        "virtualresortroom": 0,
        "flatlou": 0,
        "rmhvirtual": 0,
        "mvmpurple": 0,
        "mvmorange": 0,
        "surprise": 0,
        "virtual_mystery_red": 0,
        "mvmgreen": 0,
        "mvmbrown": 0,
        "mvmpink": 0,
        "mvmyellow": 0,
        "virtualsapphire": 0,
        "virtual_mystery_black": 0,
        "personalmunzee": "X",
        "mystery": 1,
        "virtualamethyst": 0,
        "mvmlightblue": 0,
        "mvmindigo": 0,
        "virtual_mystery_green": 0,
        "virtual_mystery_yellow": 0,
        "virtual_mystery_orange": 0,
        "safaribus": 0,
        "submarine": 0,
        "virtual_mystery_rainbow": 0,
        "musclecar": 0,
        "virtualresort": 0,
        "mwtxusa": 0,
        "standard": 1,
        "eggs": 0,
        "bcagarden": 0,
        "pawgarden": 0,
        "championshiphorse": 0,
        "virtual_mystery_violet": 0,
        "virtual_mystery_indigo": 0,
        "virtual_mystery_brown": 0,
        "pegasus": 0,
        "family": 0,
        "field": 0,
        "virtual_green": 0,
        "virtual_red": 0,
        "carrot": 0,
        "peas": 0,
        "leprechaun": 1,
        "airmystery": 0,
        "dragon": 1,
        "theunicorn": 1,
        "virtual_rainbow": 0,
        "eventzeeeventattendee": "X",
        "bcapin": 0,
        "canoe": 0,
        "virtual_violet": 0,
        "2015heartgreen": 0,
        "earthday2018tree": 0,
        "virtual_black": 0,
        "yeti": 1,
        "virtual_blue": 0,
        "faun": 1,
        "hydra": 1,
        "2015heartorange": 0,
        "2015heartyellow": 0,
        "virtualmysterypink": 0,
        "2015heartpink": 0,
        "virtual_yellow": 0,
        "motelroom": 1,
        "virtual_orange": 0,
        "tuli": 1,
        "farmerandwife": 0,
        "garden": 0,
        "cyclops": "MYTH",
        "virtual_brown": 0,
        "safaritruck": 0,
        "firstwheel": 0,
        "racehorse": 0,
        "hotelroom": 1,
        "farmer": 0,
        "footprint": 0,
        "hoofprint": 0,
        "colt": 0,
        "pottedplant": 0,
        "chick": 0,
        "chicken": 0,
        "motorboat": 0,
        "diamond": 1,
        "pawprint": 0,
        "safarivan": 0,
        "clawprint": 0,
        "talonprint": 0,
        "virtual_indigo": 0,
        "txhistoricallocation": 0,
        "penny-farthingbike": 0,
        "doublepointweekend": 1,
        "vesi": 1,
        "ruby": 1,
        "virtualtrail": 0,
        "carrotseed": 0,
        "prizewheel": 1,
        "candycorn": 0,
        "catapult": 0,
        "peasseed": 0,
        "diabetesawarenesscharity": 0,
        "carrotplant": 0,
        "peasplant": 0,
        "earthday2018seedling": 0,
        "longsword": 1,
        "boulder": 1,
        "fire": 1,
        "nomadvirtual": 0,
        "mapcleanup": 1,
        "mermaid": 1,
        "firemystery": 1,
        "scarypumpkin": 0,
        "worldphotoday2018": 1,
        "battleaxe": 1,
        "mace": 1,
        "goldenfeather": 0,
        "feather": 0,
        "motelmunzee": 1,
        "poiairport": 0,
        "premiumpersonal": "X",
        "thehammer": 1,
        "scatter": 1,
        "hotelmunzee": 1,
        "aquamarinemunzee": 1,
        "6thbirthdaysuperrob": 0,
        "poifaithplace": 0,
        "celebratemunzeefl2016": 0,
        "earthday2018seed": 0,
        "scattered": 1,
        "movember": 0,
        "suncoastii": 0,
        "internationalleftiesday2017": 1,
        "topaz": 1,
        "premium": 1,
        "business": 1,
        "frozengreenie": 1,
        "fatherchristmas2016": 1,
        "lotusyogapose": 0,
        "warrioriiyogapose": 0,
        "shamrock": 1,
        "gogreen2018": 0,
        "gnomeleprechaun": 1,
        "cherub": "MYTH",
        "gold": 0,
        "earofcorn": 1,
        "minthill2015": 0,
        "tomato": 1,
        "cahistoricallocation": 0,
        "exploringmiddletennessee2016": 0,
        "cappingthecoast2014": 0,
        "eventtrail": 0,
        "poicemetery": 0,
        "poihospital": 0,
        "icemystery": 1,
        "poipostoffice": 0,
        "rockpaperscissors": 1,
        "bluemunzee(withoutyou)": 0,
        "flatdaythe13th": 1,
        "maskedflatmatt": 0,
        "pumpkin": 0,
        "easterbunny": 0,
        "robicorn": 0,
        "4thbirthday": 1,
        "waterdroplet": 1,
        "clowncar2018": 1,
        "quizvirtual": 0,
        "poimuseum": 0,
        "easter": 0,
        "timeshareroom": 1,
        "downwarddogyogapose": 0,
        "butte": 0,
        "endoftheworld": 0,
        "dossier": 1,
        "meanie": 1,
        "poisports": 0,
        "poiuniversity": 0,
        "timesharemunzee": 1,
        "mmcocoabeachreseller": 1,
        "stmarysegg": 0,
        "westernaustraliadayinsheppzee": 0,
        "heart": 0,
        "stmarysbacon": 0,
        "staff": "X",
        "munzeemadness2": 0,
        "fridaynightjibby2015": 0,
        "geologgersreseller": 1,
        "eventpin": 1,
        "wdw2014": 0,
        "cobrayogapose": 0,
        "munzeemadnessreseller": 1,
        "spacecoastmunzeefest": 0,
        "munzeen6-vuotissynttäritturussa": 0,
        "poifirstresponders": 0,
        "pinkdiamond": 1,
        "fatherchristmas": 0,
        "firepegasus": "MYTH",
        "2ndbirthday": 0,
        "piratenomad": 1,
        "birthdaycircus2018": 0,
        "shamrock2012": 0,
        "icedragon": 1,
        "hotdogpa2015": 0,
        "fairy": "MYTH",
        "ddcardsreseller": 1,
        "1stannualmunztersmash": 0,
        "blastintheparkii": 0,
        "infraredvirtual": 0,
        "spacecoastcomestotyler,tx": 0,
        "capricorn": 1,
        "poiwildlife": 0,
        "garfieldstatue": 0,
        "qrazyturnsone": 0,
        "franklineveningcelebration2016": 0,
        "worlddiabetesday2017": 0,
        "powerpellet": 1,
        "5thbirthday": 1,
        "averymerryunbirthday2016": 0,
        "forgingcommunity2015": 0,
        "raindrop": 1,
        "heartcapper1": 0,
        "jibbyfest2015": 0,
        "trailmunzee": 1,
        "5thbirthdaygift": 1,
        "rujareseller": 1,
        "geostuffreseller": 1,
        "hellsinkimunzfun": 0,
        "worldscollideseattle": 0,
        "negsreseller": 1,
        "ddcardselkevent": 0,
        "geohobbiesreseller": 1,
        "christmasintexas": 0,
        "heartwrangler2": 0,
        "accessibility": 1,
        "cancer": 1,
        "earthmystery": 1,
        "poihistoricalplace": 0,
        "pisces": 1,
        "huntforthefranklinbeast2016": 0,
        "spectacular6thbirthdayspecial": 0,
        "nomad": 1,
        "nfc": 1,
        "gemini": 1,
        "teaparty2017": 0,
        "fatherchristmas2017": 0,
        "aquarius": 1,
        "flyingpig": 0,
        "gwxiv": 0,
        "birthday": 0,
        "munzeemarketplacecbribboncutting": 0,
        "mhqunderthebigtop7thbirthdaycelebration": 0,
        "mhqflatmatt": 0,
        "scorpio": 1,
        "aries": 1,
        "briefcase": 1,
        "tomatoplant": 1,
        "munzeemeetsowl-birthdaybash3/4": 0,
        "rose": 0,
        "goldencarrot": 1,
        "internationalbacon": 1,
        "coexist": 1,
        "sagittarius": 1,
        "getoutside2016": 0,
        "bacon": 1,
        "towerbridgeflatlou": 0,
        "mhqflatrob": 0,
        "leapday2016": 1,
        "watermystery": 1,
        "australiaday": 1,
        "milehighmischief": 0,
        "berkshiremunzeebirthdaybash": 0,
        "quiznormal": 1,
        "munzeemadnessv": 0,
        "robinnc2015": 0,
        "poilibrary": 0,
        "happy4thbirthdayberlingrunewald": 0,
        "towelday2018": 1,
        "munzeemania2018--pizzaparty": 0,
        "piday2018": 1,
        "bierkrug": 0,
        "munzeenationassembly": 0,
        "munzeemania2018--mainevent": 0,
        "milk": 1,
        "coal": 1,
        "taurus": 1,
        "heartwrangler1": 0,
        "grandopening": 0,
        "virgo": 1,
        "weare5": 0,
        "munzeemeetsowl-birthdaybash4/4": 0,
        "pariscachebash": 0,
        "thanksgiving2016": 0,
        "ghost": 1,
        "egghunt": 0,
        "worldturtleday2017": 1,
        "americanbacon": 1,
        "londontiming": 0,
        "4thbirthdaycaketurtle": 0,
        "4thbirthdaycakestrawberry": 0,
        "quadfrog": 1,
        "gingerbreadman": 0,
        "seaweed": 1,
        "mmcocoabeachgrandopening": 0,
        "christmaspickle": 1,
        "mm3": 0,
        "menorah": 1,
        "thankyoufromlouise2018": 0,
        "happy4thbirthdaykent": 0,
        "goldncoins": 0,
        "munzeemeetsowl-birthdaybash1/4": 0,
        "nomadmystery": 1,
        "eyeball": 0,
        "firework2016": 1,
        "thebacon": 0,
        "lederhosen": 0,
        "tomatoseed": 1,
        "mwmb@muncie": 0,
        "cornstalk": 1,
        "goldencarrotplant": 1,
        "mhqinnz": 0,
        "laupereseller": 1,
        "xboxcontest": 0,
        "australiaday2015": 0,
        "brezel": 0,
        "lakenonafltourdecure": 0,
        "heartcapper2": 0,
        "mhqbash2015": 0,
        "geowoodstock14er": 0,
        "worldheritagehistoricallocation": 0,
        "garlicbreathafterparty": 0,
        "nightvisiongoggles": 0,
        "flsuncoasteventiii": 0,
        "waywardnation": 0,
        "hitchhiker2018": 0,
        "shark": 1,
        "coexist15!": 0,
        "ignitedfirework2016": 0,
        "lioncub": 1,
        "woodenshoe": 0,
        "bones": 1,
        "christmasgift": 0,
        "mhqbash4:deuceswild": 0,
        "cappingthecoastfridaynight": 0,
        "piglet": 1,
        "kingofthejungle": 1,
        "christmas2017sun": 0,
        "christmastree": 0,
        "africkinfindlaychristmasevent": 0,
        "wreath": 0,
        "santa": 0,
        "pinatamint": 1,
        "suncoastmunzeeahoy": 0,
        "wallabashatmhq": 0,
        "foodtruckfandango": 0,
        "zeeopsspecial": 0,
        "munzeemeetsowl-birthdaybash2/4": 0,
        "candycane": 0,
        "hoe": 1,
        "libra": 1,
        "goldencarrotseed": 1,
        "milehighmunzbrews": 0,
        "christmas2017snowflake": 0,
        "tractor": 1,
        "snowman": 0,
        "leo": 1,
        "puzzleheart": 0,
        "thankyoufromrob2018": 0,
        "thankyoufrommatt2018": 0,
        "6thbirthdaypow": 0,
        "guyfawkesday": 1,
        "copadomunzo": 1,
        "scgsreseller": 1,
        "2ndannualcuriositeaparty": 0,
        "pig": 1,
        "flsuncoastpiratefeast": 0,
        "australiaday2017": 0,
        "backtothefutureday": 1,
        "agatheringofthefederation": 0,
        "nightofthelivingmunzee": 0,
        "cow": 1,
        "fish": 1,
        "fthqcirquedumunz7thbirthdaycelebration": 0,
        "alightsaberroguechrismas": 0,
        "bagofcoins": 1,
        "gwxiii": 0,
        "picnicinthepark2017": 0,
        "emg": 0,
        "boxofchocolates2017": 0,
        "remembrance": 1,
        "somethingwickedthiswaymunzees": 0,
        "whompnation": 0,
        "southerncaliforniaaprilteapartyevent": 0,
        "amaymunzeemeetup": 0,
        "goodnighttoall!findlaythanksyou!": 0,
        "h2oklan100k": 0,
        "londonrobbed": 0,
        "lean-toshed": 1,
        "flsuncoastsunrise": 0,
        "cornseed": 1,
        "munzeewoodstockcincinnati": 0,
        "eventzee": 1,
        "egg": 1,
        "munzeevictoriadinner": 0,
        "calf": 1,
        "findlay&#039;ssmashinggreatchristmasevent": 0,
        "seattletourdecure": 0,
        "cherrychocolate2017": 0,
        "dinner": 0,
        "coconutchocolate2017": 0,
        "pinatadrop": 1,
        "darkchocolate2017": 0,
        "redgift": 0,
        "mm3event": 0,
        "chestnutghostwalk": 0,
        "rockysunrise": 0,
        "rosemarybuchananmemorialevent": 0,
        "tourdecuredfw": 0,
        "sebringfloridaco-existgogreen": 0,
        "munzfitlondon": 0,
        "giftburger": 0,
        "cappingthecoast2merrittisland": 0,
        "munzeemeet&amp;greetinashevillenc": 0,
        "faretheewell": 0,
        "christmas2017-florida": 0,
        "robvisitsdeutschland": 0,
        "euroambassador": 0,
        "ridelondon": 0,
        "mhqmunzfit2017": 0,
        "gogreenphoenix,tourdecureandzeetour": 0,
        "nzsouthislandmeetmhq": 0,
        "meetskylar": 0,
        "aussierob": 0,
        "(lgas)salisbury,uk": 0,
        "missmichigan": 0,
        "gw2018munzeemeet&amp;greet": 0,
        "2ndeuropeevent": 0,
        "unicorn": 0,
        "cyclopsvirtualhost": 0,
        "mermaidhost": 1,
        "fairyhost": 1,
        "dragonhost": 1,
        "social": 0,
        "faunhost": 1,
        "firepouchcreaturehost": 1,
        "pegasushost": 0,
        "eventindicator": 1,
        "cyclopshost": "D",
        "cherubvirtualhost": 0,
        "cherubhost": "D",
        "unicornhost": 1,
        "waterpouchcreaturehost": 1,
        "yetihost": 1,
        "leprechaunhost": 1,
        "hydrahost": 1,
        "theprankster": 0,
        "motel": 1,
        "timeshare": 1,
        "personal": "X",
        "aquamarine": 1,
        "hotel": 1,
        "barn": 1,
        "normal": 1,
        "trail": 1,
        "creepybag": 1,
        "treasureship": 1,
        "backtoschool2016": 1,
        "summerseasonalmunzee": 1,
        "ghostship": 0,
        "cargoship": 1,
        "jewelthiefnomad": 1,
        "lion": 1,
        "warriornomad": 1,
        "tulimber": 1,
        "pinatalollipop": 1,
        "mime2018": 1,
        "mayflowers": 1,
        "plow": 1,
        "dinosaur": 1,
        "texasindependence": 1,
        "gardenshed": 1,
        "gift2014": 1
    },
    "reqnames": {
        "cap_p": "Cap", 
        "dep_p": "Dep", 
        "con_p": "CapOn",
        "tot_p": "Total",
        "cap": "#Cap",
        "dep": "#Dep",
        "gam_cap": "#GamCap",
        "phy_dep": "#PhyDep",
        "myth_cap": "#MythCap",
        "phy_cap": "#PhyCap",
        "c_days": "#CapDays",
        "d_days": "#DepDays",
        "jewel_dep": "#JewelDep",
        "clan_dep": "#WeaponDep",
        "tot_xcon": "Cap&Dep",
        "cap_xsoc": "#Cap",
        "dep_xsoc": "#Dep",
        "mys_cap": "#MystCap",
        "mothot_cap": "#M/HotelCap",
        "mys_dep": "#MystDep",
        "phyjew_cap": "#PhyJewelCap",
        "phyevo_cap": "#PhyEvoCap",
        "prem_cap": "#PremCap",
        "phyjew_dep": "#PhyJewelDep",
        "phyevo_dep": "#PhyEvoDep",
        "prem_dep": "#PremDep",
        "mothot_dep": "#M/HotelDep",
    
        "tempvirt_cap": "#TmpVrtCap",
        "event_cap": "#EvntIndCap",
        "rmyth_cap": "#RtMythCap",
        "zeeqrew_replace": "#ZQrewRplce",
        "virtevo_cap": "#VrtEvoCap",
        "surprise_cap": "#SurpCap",
        "scatter_cap": "#ScatCap",
        "scatter_dep": "#ScatDep",
        "scattered_cap": "#ScttrdCap",
        "prize_cap": "#PrzWhlCap",

        "nov18_jewel_cap": "N/A",
        "nov18_places_cap": "N/A",
        "nov18_cap_streak": "N/A",
        "nov18_greenie_dep": "N/A",
        "nov18_diff_places_cap": "N/A",
        "nov18_clan_cap": "N/A",
        "nov18_virtual_cap": "N/A",
        "nov18_zodiac_cap": "N/A",
        "nov18_leprechaun_cap": "N/A",
        "nov18_nomad_cap": "N/A",
        "nov18_yeti_cap": "N/A",
        "nov18_faun_cap": "N/A",
        "nov18_retmyth_cap": "N/A",
        "nov18_clan_dep": "N/A",
        "nov18_jewel_dep": "N/A",
        "nov18_mermaid_cap": "N/A",
        "nov18_hydra_cap": "N/A",
        "nov18_pouch_cap": "N/A",
        "nov18_virtual_dep": "N/A"
    },
    "oldreqdescs": {
        "cap_p": "Capture Points",
        "dep_p": "Deploy Points",
        "con_p": "Capture-on Points",
        "tot_p": "Total Points",
        "cap": "Number of Captures",
        "dep": "Number of Deploys",
        "gam_cap": "Number of Gaming Munzee Captures",
        "phy_dep": "Number of Physical Deploys",
        "myth_cap": "Number of Myth Captures",
        "phy_cap": "Number of Physical Captures",
        "c_days": "Capture Days",
        "d_days": "Deploy Days",
        "jewel_dep": "Number of Jewel Deploys",
        "clan_dep": "Number of Weapon Deploys",
        "tot_xcon": "Capture and Deploy Points",
        "cap_xsoc": "Number of Captures, excluding Socials",
        "dep_xsoc": "Number of Deploys, excluding Socials",
        "mys_cap": "Number of Mystery Captures",
        "mothot_cap": "Number of Motel/Hotel (Inc. Rooms) Captures",
        "mys_dep": "Number of Mystery Deploys",
        "phyjew_cap": "Number of Physical Jewel Captures",
        "phyevo_cap": "Number of Physical Evolution Captures",
        "prem_cap": "Number of Premium Captures",
        "phyjew_dep": "Number of Physical Jewel Deploys",
        "phyevo_dep": "Number of Physical Evolution Deploys",
        "prem_dep": "Number of Premium Deploys",
        "mothot_dep": "Number of Motel/Hotal (Inc. Rooms) Deploys",
    
    
        "tempvirt_cap": "Number of Temporary Virtual Captures",
        "event_cap": "Number of Event Indicator Captures",
        "rmyth_cap": "Number of RetireMyth Captures",
        "zeeqrew_replace": "Number of ZeeQRew Replaces",
        "virtevo_cap": "Number of Virtual Evolution Captures",
        "surprise_cap": "Number of Surprise Captures",
        "scatter_cap": "Number of Scatter Captures",
        "scatter_dep": "Number of Scatter Deploys",
        "scattered_cap": "Number of Scattered Captures",
        "prize_cap": "Number of Prize Wheel Captures",

        "nov18_jewel_cap": "Number of Jewel Captures",
        "nov18_places_cap": "Number of POI Captures",
        "nov18_cap_streak": "Capture Streak Length",
        "nov18_greenie_dep": "Number of Greenie Deploys",
        "nov18_diff_places_cap": "Number of Different POI Captures",
        "nov18_clan_cap": "Number of Clan Weapon Captures",
        "nov18_virtual_cap": "Number of Virtual Captures",
        "nov18_zodiac_cap": "Number of Zodiac Captures",
        "nov18_leprechaun_cap": "Number of Leprechaun Captures",
        "nov18_nomad_cap": "Number of Nomad Captures",
        "nov18_yeti_cap": "Number of Yeti Captures",
        "nov18_faun_cap": "Number of Faun Captures",
        "nov18_retmyth_cap": "Number of RetireMyth Captures",
        "nov18_clan_dep": "Number of Clan Weapon Deploys",
        "nov18_jewel_dep": "Number of Jewel Deploys",
        "nov18_mermaid_cap": "Number of Mermaid Captures",
        "nov18_hydra_cap": "Number of Hydra Captures",
        "nov18_pouch_cap": "Number of Pouch Creature Captures",
        "nov18_virtual_dep": "Number of Virtual Deploys"
    },
    "reqdescs": {
        "cap_p": {"val":"requirement.points","args":{"type":"action.capture.singular"}},
        "dep_p": {"val":"requirement.points","args":{"type":"action.deploy.singular"}},
        "con_p": {"val":"requirement.points","args":{"type":"action.capture_on.singular"}},
        "tot_p": {"val":"requirement.points","args":{"type":"action.total.singular"}},

        "nov18_jewel_cap": {"val":"requirement.number_of","args":{"munzee":"munzee.jewel","action":"action.capture.plural"}},
        "nov18_places_cap": {"val":"requirement.number_of","args":{"munzee":"munzee.poi","action":"action.capture.plural"}},
        "nov18_cap_streak": {"val":"requirement.length","args":{"type":"action.streak.singular","action":"action.capture.plural"}},
        "nov18_greenie_dep": {"val":"requirement.number_of","args":{"munzee":"munzee.greenie","action":"action.deploy.plural"}},
        "nov18_diff_places_cap": {"val":"requirement.number_of","args":{"munzee":"munzee.different_poi","action":"action.different_capture.plural"}},
        "nov18_clan_cap": {"val":"requirement.number_of","args":{"munzee":"munzee.clan","action":"action.capture.plural"}},
        "nov18_virtual_cap": {"val":"requirement.number_of","args":{"munzee":"munzee.virtual","action":"action.capture.plural"}},
        "nov18_zodiac_cap": {"val":"requirement.number_of","args":{"munzee":"munzee.zodiac","action":"action.capture.plural"}},
        "nov18_leprechaun_cap": {"val":"requirement.number_of","args":{"munzee":"munzee.leprechaun","action":"action.capture.plural"}},
        "nov18_nomad_cap": {"val":"requirement.number_of","args":{"munzee":"munzee.nomad","action":"action.capture.plural"}},
        "nov18_yeti_cap": {"val":"requirement.number_of","args":{"munzee":"munzee.yeti","action":"action.capture.plural"}},
        "nov18_faun_cap": {"val":"requirement.number_of","args":{"munzee":"munzee.faun","action":"action.capture.plural"}},
        "nov18_retmyth_cap": {"val":"requirement.number_of","args":{"munzee":"munzee.retiremyth","action":"action.capture.plural"}},
        "nov18_clan_dep": {"val":"requirement.number_of","args":{"munzee":"munzee.clan","action":"action.deploy.plural"}},
        "nov18_jewel_dep": {"val":"requirement.number_of","args":{"munzee":"munzee.jewel","action":"action.deploy.plural"}},
        "nov18_mermaid_cap": {"val":"requirement.number_of","args":{"munzee":"munzee.mermaid","action":"action.capture.plural"}},
        "nov18_hydra_cap": {"val":"requirement.number_of","args":{"munzee":"munzee.hydra","action":"action.capture.plural"}},
        "nov18_pouch_cap": {"val":"requirement.number_of","args":{"munzee":"munzee.pouch_creature","action":"action.capture.plural"}},
        "nov18_virtual_dep": {"val":"requirement.number_of","args":{"munzee":"munzee.virtual","action":"action.deploy.plural"}}
    },
    "reqfrom": {
        "cap_p": ["d","capture_points","capture"],
        "dep_p": ["d","deploy_points","deploy"],
        "con_p": ["d","capture_on_points","capture_on"],
        "tot_p": ["d","total_points","total"], 
        "tot_xcon": ["d","capture_points+deploy_points","capture+deploy"],
        "cap": ["s","number of captures"], 
        "cap_xsoc": ["s","number of captures"],
        "gam_cap": ["s","number of gaming captures"], 
        "phy_dep": ["s","number of physical deploys"], 
        "dep": ["s","number of deploys"], 
        "dep_xsoc": ["s","number of deploys"],
        "myth_cap": ["s","number of myth caps"],
        "phy_cap": ["s","number of physical captures"],
        "c_days": ["s","number of capture days"],
        "d_days": ["s","number of deploy days"],
        "jewel_dep": ["s","number of jewel deploys"],
        "clan_dep": ["s","number of weapon deploys"],
        "mys_cap": ["s","number of mystery caps"],
        "mothot_cap": ["s","number of destination caps"],
        "mys_dep": ["s","number of mystery deploys"],
        "phyjew_cap": ["s","number of jewel caps"],
        "phyevo_cap": ["s","number of evolution caps"],
        "prem_cap": ["s","number of premium caps"],
        "phyjew_dep": ["s","number of jewel deploys"],
        "phyevo_dep": ["s","number of evolution deploys"],
        "prem_dep": ["s","number of premium deploys"],
        "mothot_dep": ["s","number of destination deploys"],
    
    
        "tempvirt_cap": ["s","number of temp virt caps"],
        "event_cap": ["s","number of event pin caps"],
        "rmyth_cap": ["s","number of retire myth caps"],
        "zeeqrew_replace": ["s","number of replaced munzees"],
        "virtevo_cap": ["s","number of evolution caps"],
        "surprise_cap": ["s","number of surprise caps"],
        "scatter_cap": ["s","number of scatter caps"],
        "scatter_dep": ["s","number of scatter deploys"],
        "scattered_cap": ["s","number of scattered caps"],
        "prize_cap": ["s","number of prize wheel caps"],

        "nov18_jewel_cap": ["s","number of jewel caps"],
        "nov18_places_cap": ["s","number of places caps"],
        "nov18_cap_streak": ["s","capture streak"],
        "nov18_greenie_dep": ["s","number of greenie deploys"],
        "nov18_diff_places_cap": ["s","number of unique places caps"],
        "nov18_clan_cap": ["s","number of weapon caps"],
        "nov18_virtual_cap": ["s","number of new virtual caps"],
        "nov18_zodiac_cap": ["s","number of zodiac caps"],
        "nov18_leprechaun_cap": ["s","number of leprechaun caps"],
        "nov18_nomad_cap": ["s","number of nomad caps"],
        "nov18_yeti_cap": ["s","number of yeti caps"],
        "nov18_faun_cap": ["s","number of faun caps"],
        "nov18_retmyth_cap": ["s","number of retire myth caps"],
        "nov18_clan_dep": ["s","number of weapon deploys"],
        "nov18_jewel_dep": ["s","number of jewel deploys"],
        "nov18_mermaid_cap": ["s","number of mermaid caps"],
        "nov18_hydra_cap": ["s","number of hydra caps"],
        "nov18_pouch_cap": ["s","number of pouch creature caps"],
        "nov18_virtual_dep": ["s","number of new virtual deploys"]
    },
    "reqimgs": {
        "cap_p": ["action.point.short","https://munzee.global.ssl.fastly.net/images/v4pins/captured_physical.png"], 
        "dep_p": ["action.point.short","https://munzee.global.ssl.fastly.net/images/v4pins/owned_physical.png"], 
        "con_p": ["action.point.short","https://preview.ibb.co/cEZivA/CapOn.png","https://preview.ibb.co/dLO6GL/capon.png"], 
        "tot_p": ["action.point.short","https://image.ibb.co/kS9rFA/Total-Points.png","https://munzee.global.ssl.fastly.net/images/v4pins/munzee.png"],
        "myth_cap": ["action.capture.short","https://munzee.global.ssl.fastly.net/images/v4pins/theunicorn.png"],
        "clan_dep": ["action.deploy.short","https://munzee.global.ssl.fastly.net/images/v4pins/longsword.png"],
        "tempvirt_cap": ["action.capture.short","https://munzee.global.ssl.fastly.net/images/v4pins/temporaryvirtual.png"],
        "event_cap": ["action.capture.short","https://munzee.global.ssl.fastly.net/images/v4pins/eventindicator.png"],
        "rmyth_cap": ["action.capture.short","https://munzee.global.ssl.fastly.net/images/v4pins/retiredunicorn.png"],
        "zeeqrew_replace": ["Replace","https://munzee.global.ssl.fastly.net/images/v4pins/maintenance.png"],
        "virtevo_cap": ["action.capture.short","https://munzee.global.ssl.fastly.net/images/v4pins/evolution.png"],
        "surprise_cap": ["action.capture.short","https://munzee.global.ssl.fastly.net/images/v4pins/surprise.png"],
        "scatter_cap": ["action.capture.short","https://munzee.global.ssl.fastly.net/images/v4pins/scatter.png"],
        "scatter_dep": ["action.deploy.short","https://munzee.global.ssl.fastly.net/images/v4pins/scatter.png"],
        "scattered_cap": ["action.capture.short","https://munzee.global.ssl.fastly.net/images/v4pins/scattered.png"],
        "prize_cap": ["action.capture.short","https://munzee.global.ssl.fastly.net/images/v4pins/prizewheel.png"],

        "nov18_jewel_cap": ["action.capture.short","https://preview.ibb.co/h6VsNq/Multi-Jewel-Pin.png","https://munzee.global.ssl.fastly.net/images/v4pins/diamond.png"],
        "nov18_places_cap": ["action.capture.short","https://munzee.global.ssl.fastly.net/images/v4pins/poifirstresponders.png"],
        "nov18_cap_streak": ["action.streak.short","https://munzee.global.ssl.fastly.net/images/v4pins/captured_virtual.png","https://image.ibb.co/g9CtQq/Cap-Streak.png"],
        "nov18_greenie_dep": ["action.deploy.short","https://munzee.global.ssl.fastly.net/images/v4pins/munzee.png"],
        "nov18_diff_places_cap": ["action.different_capture.short","https://munzee.global.ssl.fastly.net/images/v4pins/poifirstresponders.png"],
        "nov18_clan_cap": ["action.capture.short","https://munzee.global.ssl.fastly.net/images/v4pins/longsword.png"],
        "nov18_virtual_cap": ["action.capture.short","https://munzee.global.ssl.fastly.net/images/v4pins/virtual_rainbow.png"],
        "nov18_zodiac_cap": ["action.capture.short","https://munzee.global.ssl.fastly.net/images/v4pins/zodiac.png"],
        "nov18_leprechaun_cap": ["action.capture.short","https://munzee.global.ssl.fastly.net/images/v4pins/leprechaun.png"],
        "nov18_nomad_cap": ["action.capture.short","https://munzee.global.ssl.fastly.net/images/v4pins/nomad.png"],
        "nov18_yeti_cap": ["action.capture.short","https://munzee.global.ssl.fastly.net/images/v4pins/yeti.png"],
        "nov18_faun_cap": ["action.capture.short","https://munzee.global.ssl.fastly.net/images/v4pins/faun.png"],
        "nov18_retmyth_cap": ["action.capture.short","https://munzee.global.ssl.fastly.net/images/v4pins/retiredunicorn.png"],
        "nov18_clan_dep": ["action.deploy.short","https://munzee.global.ssl.fastly.net/images/v4pins/longsword.png"],
        "nov18_jewel_dep": ["action.deploy.short","https://preview.ibb.co/h6VsNq/Multi-Jewel-Pin.png","https://munzee.global.ssl.fastly.net/images/v4pins/diamond.png"],
        "nov18_mermaid_cap": ["action.capture.short","https://munzee.global.ssl.fastly.net/images/v4pins/mermaid.png"],
        "nov18_hydra_cap": ["action.capture.short","https://munzee.global.ssl.fastly.net/images/v4pins/hydra.png"],
        "nov18_pouch_cap": ["action.capture.short","https://preview.ibb.co/bKsiCq/Pouch-Creature.png","https://preview.ibb.co/eRhKc0/pouchagain.png","https://image.ibb.co/eqZMqL/pouchagain.png","https://preview.ibb.co/bKsiCq/Pouch-Creature.png","https://munzee.global.ssl.fastly.net/images/v4pins/tuli.png"],
        "nov18_virtual_dep": ["action.deploy.short","https://munzee.global.ssl.fastly.net/images/v4pins/virtual_rainbow.png"]
    }
}